ANSWERS: Working with untidy and tidy data
…
## # A tibble: 6 x 10
##   name  rotation_period orbital_period diameter climate gravity terrain
##   <chr>           <dbl>          <dbl>    <dbl> <chr>   <chr>   <chr>  
## 1 Alde              24            364    12500 temper 1 stan grassl
## 2 Yavi              24           4818    10200 temper 1 stan jungle
## 3 Hoth               23            549     7200 frozen  1.1 st tundra
## 4 Dago              23            341     8900 murky   N/A     swamp,
## 5 Besp              12           5110   118000 temper 1.5 st gas gi
## 6 Endor              18            402     4900 temper 0.85 s forest
## #  with 3 more variables: surface_water <chr>, population <chr>, edited <chr>

planets %>% separate_rows(terrain) #now work on this and figure out what separate_rows is doing and then apply it. This is really cool! There were multiple categories in terrain separated by commas and separate_rows made each one of those into its own row! 

## # A tibble: 27 x 10
##    name  rotation_period orbital_period diameter climate gravity terrain
##    <chr>           <dbl>          <dbl>    <dbl> <chr>   <chr>   <chr>  
##  1 Alde              24            364    12500 temper 1 stan grassl
##  2 Alde              24            364    12500 temper 1 stan mounta
##  3 Yavi              24           4818    10200 temper 1 stan jungle 
##  4 Yavi              24           4818    10200 temper 1 stan rainfo
##  5 Hoth               23            549     7200 frozen  1.1 st tundra 
##  6 Hoth               23            549     7200 frozen  1.1 st ice    
##  7 Hoth               23            549     7200 frozen  1.1 st caves  
##  8 Hoth               23            549     7200 frozen  1.1 st mounta
##  9 Dago              23            341     8900 murky   N/A     swamp  
## 10 Dago              23            341     8900 murky   N/A     jungles
## #  with 17 more rows, and 3 more variables: surface_water <chr>,
## #   population <chr>, edited <chr>
…
Add your own chunks if you choose to do this adventure.

hydro_power <- read_csv(paste0(params$data_path, 'hydro_power_generation_total.csv'))

## Parsed with column specification:
## cols(
##   .default = col_double(),
##   country = col_character()
## )

## See spec(...) for full column specifications.

hydro_power

## # A tibble: 118 x 53
##    country `1960` `1961` `1962` `1963`  `1964`  `1965`  `1966`  `1967`  `1968`
##    <chr>    <dbl>  <dbl>  <dbl>  <dbl>   <dbl>   <dbl>   <dbl>   <dbl>   <dbl>
##  1 Albania     NA     NA     NA     NA      NA      NA      NA      NA      NA
##  2 Algeria     NA     NA     NA     NA      NA      NA      NA      NA      NA
##  3 Angola      NA     NA     NA     NA      NA      NA      NA      NA      NA
##  4 Argent     NA     NA     NA     NA      NA      NA      NA      NA      NA
##  5 Armenia     NA     NA     NA     NA      NA      NA      NA      NA      NA
##  6 Austra 344000 397000 423000 567000  588000  713000  607000  655000  654000
##  7 Austria 977000 963000 996000 977000 1090000 1350000 1470000 1500000 1530000
##  8 Azerba     NA     NA     NA     NA      NA      NA      NA      NA      NA
##  9 Bangla     NA     NA     NA     NA      NA      NA      NA      NA      NA
## 10 Belarus     NA     NA     NA     NA      NA      NA      NA      NA      NA
## #  with 108 more rows, and 43 more variables: `1969` <dbl>, `1970` <dbl>,
## #   `1971` <dbl>, `1972` <dbl>, `1973` <dbl>, `1974` <dbl>, `1975` <dbl>,
## #   `1976` <dbl>, `1977` <dbl>, `1978` <dbl>, `1979` <dbl>, `1980` <dbl>,
## #   `1981` <dbl>, `1982` <dbl>, `1983` <dbl>, `1984` <dbl>, `1985` <dbl>,
## #   `1986` <dbl>, `1987` <dbl>, `1988` <dbl>, `1989` <dbl>, `1990` <dbl>,
## #   `1991` <dbl>, `1992` <dbl>, `1993` <dbl>, `1994` <dbl>, `1995` <dbl>,
## #   `1996` <dbl>, `1997` <dbl>, `1998` <dbl>, `1999` <dbl>, `2000` <dbl>,
## #   `2001` <dbl>, `2002` <dbl>, `2003` <dbl>, `2004` <dbl>, `2005` <dbl>,
## #   `2006` <dbl>, `2007` <dbl>, `2008` <dbl>, `2009` <dbl>, `2010` <dbl>,
## #   `2011` <dbl>

hydro_power %>%
  pivot_longer(`1960`:`2011`, names_to= 'Year', values_to= 'Amount') -> hydro_power_tidy #need to use backticks
hydro_power_tidy

## # A tibble: 6,136 x 3
##    country Year  Amount
##    <chr>   <chr>  <dbl>
##  1 Albania 1960      NA
##  2 Albania 1961      NA
##  3 Albania 1962      NA
##  4 Albania 1963      NA
##  5 Albania 1964      NA
##  6 Albania 1965      NA
##  7 Albania 1966      NA
##  8 Albania 1967      NA
##  9 Albania 1968      NA
## 10 Albania 1969      NA
## #  with 6,126 more rows
…
